<?xml version="1.0" encoding="UTF-8"?>
<svg viewBox="0 0 100 120" version="1.1" xmlns="http://www.w3.org/2000/svg">
	<!-- Generator: sketchtool 39.1 (31720) - http://www.bohemiancoding.com/sketch -->
	<title>9ACF28E9-ABA6-4454-A48D-A44AC8B8827A</title>
	<desc>Created with sketchtool.</desc>
	<defs></defs>
	<g id="Symbols" stroke="none" stroke-width="1" fill="none" fill-rule="evenodd">
		<g id="Assets/pic_02_header">
			<g id="pic_02_header">
				<g id="Wings" transform="translate(0.000000, 50.000000)">
					<path d="M65,0.274801878 L69.9415749,16.0414879 C71.925002,22.3698494 77.9778061,30.5119725 83.4635647,34.2292404 L86.7470586,36.4542065 C94.066456,41.4139875 100,52.6022925 100,61 L50,61 L0,61 C0,52.6022925 5.93354397,41.4139875 13.2529414,36.4542065 L16.5364353,34.2292404 C22.0221939,30.5119725 28.074998,22.3698494 30.0584251,16.0414879 L35,0.274801878 L35,37 L65,37 L65,0.274801878 L65,0.274801878 Z"
					      id="Wings-3" fill="#FFAA86"></path>
					<path d="M69.409098,18.5668198 C71.4244833,24.8811908 77.5173563,32.9670814 83.0234344,36.6308372 L84.7258466,37.7636259 C92.0569591,42.6417634 98,53.7559394 98,61 L54.9785408,61 L2,61 C2,53.7559394 7.94304092,42.6417634 15.2741534,37.7636259 L16.9765656,36.6308372 C22.4826437,32.9670814 28.5755167,24.8811908 30.590902,18.5668198 L35,4.75274623 L35,37 L65,37 L65,4.75274623 L69.409098,18.5668198 Z"
					      id="Wings-2" fill="#6D4784"></path>
					<path d="M67.3724723,20.4548263 C69.2019832,26.8310497 75.342981,34.7581605 81.0912249,38.1619747 L82.1205233,38.7714723 C89.7859466,43.3105415 96,54.149766 96,59 L50,59 L4,59 C4,54.149766 10.2140534,43.3105415 17.8794767,38.7714723 L18.9087751,38.1619747 C24.657019,34.7581605 30.7980168,26.8310497 32.6275277,20.4548263 L35,12.1862701 L35,37 L65,37 L65,12.1862701 L67.3724723,20.4548263 Z"
					      id="Wings-1" fill="#B28AC9"></path>
				</g>
				<g id="Body" transform="translate(35.000000, 0.000000)">
					<path d="M0,86.977314 L0,48.977314 L0,34.2328392 C0,25.9452817 3.27327811,13.356613 7.30226646,6.13105102 L7.69773354,5.4218229 C11.7306639,-1.8108087 18.2732781,-1.80373904 22.3022665,5.4218229 L22.6977335,6.13105102 C26.7306639,13.3636826 30,25.9405602 30,34.2328392 L30,48.977314 L30,86.977314 L0,86.977314 Z"
					      fill="#6D4784"></path>
					<path d="M15,1.82867552e-08 C17.6438863,0.000209973828 20.2873968,1.80836847 22.3022665,5.4218229 L22.6977335,6.13105102 C26.7306639,13.3636826 30,25.9405602 30,34.2328392 L30,48.977314 L30,86.977314 L15,86.977314 L15,1.82867552e-08 Z"
					      fill="#523166"></path>
					<path d="M25.7594907,13 C25.9980868,13.6545506 26.2297202,14.3222931 26.4535509,15 L3.54752107,15 C3.7713047,14.3222632 4.00287084,13.6545173 4.24137599,13 L25.7594907,13 Z"
					      id="Body-Line-2" fill="#B28AC9"></path>
					<path d="M5.86485217,9 L24.1354391,9 C24.4275262,9.64360026 24.713326,10.3117139 24.9917087,11 L5.00888718,11 C5.28719933,10.3116368 5.57289951,9.64351716 5.86485217,9 L5.86485217,9 Z"
					      id="Body-Line-1" fill="#B28AC9"></path>
				</g>
				<g id="Center-Bottom" transform="translate(28.000000, 84.000000)">
					<path d="M0,27 L0,13.5 C0,6.04415588 6.04876811,0 13.5004716,0 L30.4995284,0 C37.955633,0 44,6.04251654 44,13.5 L44,27 L0,27 Z"
					      fill="#6D4784"></path>
					<path d="M33,0.231043035 L33,27 L11,27 L11,0.231322449 C11.8103864,0.0794339498 12.6462101,0 13.5004716,0 L30.4995284,0 C31.3538774,0 32.1896911,0.0793349424 33,0.231043035 L33,0.231043035 Z"
					      fill="#523166"></path>
					<path d="M42.3353688,7 C42.6859517,7.63705187 42.9865954,8.30547458 43.2320261,9 L0.768668702,9 C1.01428359,8.30549146 1.31513517,7.63706651 1.66593338,7 L42.3353688,7 L42.3353688,7 Z"
					      fill="#B28AC9"></path>
					<polygon id="Path" fill="#B28AC9"
					         points="10 15 10 27 8 27 8 15 5 15 5 9 13 9 13 15 10 15"></polygon>
					<polygon id="Path" fill="#B28AC9" points="36 15 36 27 34 27 34 15 31 15 31 9 39 9 39 15"></polygon>
				</g>
				<g id="Top" transform="translate(15.000000, 23.000000)">
					<rect id="Rectangle-18" fill="#B28AC9" x="16" y="88" width="38" height="3"></rect>
					<rect id="Rectangle-18" fill="#523166" x="17" y="91" width="36" height="3"></rect>
					<rect id="Rectangle-18" fill="#FFBDA1" x="19" y="94" width="32" height="3"></rect>
					<path d="M42,6.99455699 C42,3.14199463 38.8659932,0 35,0 C31.1418733,0 28,3.13156983 28,6.99455699 L28,9 L42,9 L42,6.99455699 Z"
					      id="Combined-Shape" fill="#FFBDA1"></path>
					<rect id="Rectangle-16" fill="#B28AC9" x="34" y="14" width="2" height="7"></rect>
					<rect id="Rectangle-16" fill="#B28AC9" x="30" y="14" width="2" height="7"></rect>
					<rect id="Rectangle-16" fill="#B28AC9" x="38" y="14" width="2" height="7"></rect>
					<rect id="Rectangle-13" fill="#B28AC9" x="29" y="27" width="12" height="21"></rect>
					<rect id="Rectangle-13" fill="#9A6FB4" x="29" y="48" width="12" height="13"></rect>
					<ellipse id="Oval-2" fill="#523166" cx="66" cy="76.5" rx="4" ry="4.5"></ellipse>
					<ellipse id="Oval-2" fill="#523166" cx="4" cy="76.5" rx="4" ry="4.5"></ellipse>
				</g>
			</g>
		</g>
	</g>
</svg>