<?xml version="1.0" encoding="UTF-8"?>
<svg xmlns:xlink="http://www.w3.org/1999/xlink" viewBox="0 0 150 78" version="1.1" xmlns="http://www.w3.org/2000/svg">
	<!-- Generator: sketchtool 39.1 (31720) - http://www.bohemiancoding.com/sketch -->
	<title>A7D7B6D4-C713-4D04-97C7-44E87DD76E4B</title>
	<desc>Created with sketchtool.</desc>
	<defs>
		<path d="M112.999999,40 C111.166668,32.551135 105.91304,26.191419 99.0339051,23.0482606 L95.0429465,22.0461624 L91.0519878,20.0419658 L72.0949343,7.01468802 C70.7780029,6.12580719 67.9025749,4.71025855 66.1084964,4.00839316 C62.6192903,2.64337321 58.8269232,1.29570195 55.7510641,1.00303136 L33.0788741,0 C22.0249226,0 10.0971326,8.49269841 7.24185645,19.0398675 L6.24411679,20.0419658 C4.96167935,20.6684355 2.9840039,24.4772643 3.25089782,27.0566538 C3.25089782,27.0566538 3.14194217,30.7964931 3.09969233,32.6173096 C3.09154034,32.9686311 3.1786499,33.6312866 3.1786499,33.6312866 C15.4350959,33.6312866 21.5299138,28 34.9631781,28 C56.362203,28 90.4902657,33.087948 113.335324,41.4771931 C113.743344,43.0796593 112.999999,40 112.999999,40 Z"
		      id="path-1"></path>
		<path d="M3,37 C1.52150874,39.1052694 0.247371566,43.6932903 0.161290972,46.7182603 L0.00131948688,52.3398404 C-0.0475737295,54.0580036 1.26837982,55.7073341 2.94091624,56.0120484 C2.99194323,55.9255655 2.99138541,55.8544579 2.99138541,55.7832167 C2.99138541,48.5905394 8.67751012,42.7597223 15.6917004,42.7597223 C22.7058907,42.7597223 28.3920154,48.5905394 28.3920154,55.7832167 C28.3920154,56.8560991 28.2655012,57.8986805 28.0269363,58.8961294 C39.0389799,59.7635715 50.20005,60.1774516 58.6726421,59.9241787 L82.7151695,59.2054706 C82.4263013,58.114942 82.2721397,56.9675407 82.2721397,55.7832167 C82.2721397,48.5905394 87.9582644,42.7597223 94.9724547,42.7597223 C101.986645,42.7597223 107.67277,48.5905394 107.67277,55.7832167 C107.67277,56.6460635 107.590942,57.489312 107.434809,58.3052472 C109.271574,57.866536 112,56.0120487 112,55 C112,55 111.475185,53.5461486 111.212778,52.8192229 C110.779916,51.6201026 109.914193,49.2218621 109.914193,49.2218621 C107.975852,43.5826469 101.582537,39.0277015 95.6273113,39.0277015 L94.4009845,39.0277015 C89.2916487,39.0277015 83.3177732,42.7349698 81.0505074,47.308117 L79.534883,50.3651796 C78.0225464,53.4156106 74.038029,55.8848358 70.6329895,55.8848358 L43.9030622,55.8848355 C37.9404552,55.8848355 31.362301,51.388753 29.1937784,45.8425542 L29.5625096,46.7856187 C27.5541636,41.6490864 21.4587718,37.0331414 15.9550595,36.4934908 L11.9174962,36.0975992 C9.25584839,35.836619 3,37 3,37 Z"
		      id="path-3"></path>
	</defs>
	<g id="Symbols" stroke="none" stroke-width="1" fill="none" fill-rule="evenodd">
		<g id="Assets/pic_04_header">
			<g id="pic_04_header">
				<g id="BG-Lines" transform="translate(0.000000, 18.000000)">
					<path d="M147.494866,55 C148.878413,55 150,56.1096621 150,57.5 C150,58.8807119 148.880424,60 147.494866,60 L5.50513439,60 C4.12158687,60 3,58.8903379 3,57.5 C3,56.1192881 4.1195761,55 5.50513439,55 L147.494866,55 Z"
					      id="Rectangle-21" fill="#523166"></path>
					<path d="M38.4948134,0 C39.8783898,0 41,1.10966206 41,2.5 C41,3.88071187 39.8906622,5 38.4948134,5 L20.5051866,5 C19.1216102,5 18,3.89033794 18,2.5 C18,1.11928813 19.1093378,0 20.5051866,0 L38.4948134,0 Z"
					      id="Rectangle-21" fill="#9869B4"></path>
					<path d="M29.5023733,10 C30.8817744,10 32,11.1096621 32,12.5 C32,13.8807119 30.8723116,15 29.5023733,15 L24.4976267,15 C23.1182256,15 22,13.8903379 22,12.5 C22,11.1192881 23.1276884,10 24.4976267,10 L29.5023733,10 Z"
					      id="Rectangle-21" fill="#9869B4"></path>
					<path d="M25.5023733,33 C26.8817744,33 28,34.1096621 28,35.5 C28,36.8807119 26.8723116,38 25.5023733,38 L20.4976267,38 C19.1182256,38 18,36.8903379 18,35.5 C18,34.1192881 19.1276884,33 20.4976267,33 L25.5023733,33 Z"
					      id="Rectangle-21" fill="#B28AC9"></path>
					<circle id="Oval" fill="#9869B4" cx="2.5" cy="24.5" r="2.5"></circle>
				</g>
				<g id="Siren" transform="translate(56.000000, 0.000000)">
					<path d="M0,8 L1.02929315,3.8828274 C1.56539974,1.73840104 3.79182182,0 6.00236948,0 L8.99763052,0 C11.2080781,0 13.4339702,1.73588085 13.9707069,3.8828274 L15,8 L0,8 Z"
					      id="1" fill="#B28AC9"></path>
					<path d="M8,0 L8.99763052,0 C11.2080781,0 13.4339702,1.73588085 13.9707069,3.8828274 L15,8 L7,8 L7,0 L8,0 Z"
					      id="Combined-Shape" fill="#9869B4"></path>
				</g>
				<g id="Car" transform="translate(24.000000, 7.000000)">
					<mask id="mask-2" fill="white">
						<use xlink:href="#path-1"></use>
					</mask>
					<use id="Combined-Shape" fill="#6D4784" xlink:href="#path-1"></use>
					<path d="M6.96326952,27 L3,27 C3,23.0082134 4.97402551,20.3613799 5.97245214,20.0143734 L6.96326952,19.0164267 C7.04439335,18.7882664 9.93572166,21.01232 9.93572166,21.01232 C13.4861225,24.2277284 12.4322273,27 6.96326952,27 Z"
					      id="Combined-Shape" fill="#FFBDA1"></path>
					<path d="M71,6 L91,20 L95,22 L87,22 L62,4 L66,4 C66,4 69.6936242,5.33606869 71,6 L71,6 Z" id="Path"
					      fill="#FFBDA1"></path>
					<path d="M3.26089512,36.9306263 L3.09969233,32.573068 C3.54302074,32.3722878 3.99481477,32.1764569 4.45511149,31.9856542 C12.1747186,28.7857137 22.2858258,27 34.9631781,27 C56.362203,27 90.4902657,32.087948 113.335324,40.4771931 C113.755902,42.1289779 113.986949,44.7961318 114,46.4370739 C113.999699,46.4745157 113.999281,46.5119393 113.998746,46.5493441 L113.944777,50.3226418 C113.916372,52.3086589 113.002927,53.799587 112,55 C111,54 109.92436,49.3917785 109.92436,49.3917785 C107.990565,43.798903 101.612243,39.2813874 95.6709831,39.2813874 L94.4475322,39.2813874 C89.3501785,39.2813874 83.3903125,42.9581916 81.1283637,47.4937595 L79.6162937,50.525701 C78.1075037,53.5510655 74.1323305,56 70.7352763,56 L44.0680343,55.9999998 C38.1194103,55.9999997 31.5566828,51.5408633 29.3932457,46.0402398 L29.7611122,46.9755547 C27.757476,41.8812313 21.6763787,37.3032173 16.1855733,36.7680013 L12.1574786,36.3753628 C9.50571307,36.1168821 6.0595208,36.3910065 3,37.0196115 L3.26089512,36.9306263 Z"
					      id="Combined-Shape" fill="#523166"></path>
					<mask id="mask-4" fill="white">
						<use xlink:href="#path-3"></use>
					</mask>
					<use id="Combined-Shape" fill="#B28AC9" xlink:href="#path-3"></use>
					<path d="M25.0602277,20.587161 C25.101934,20.8638915 25.1532039,21.1839053 25.2144967,21.5436237 C25.3890121,22.5678303 25.6091047,23.7076251 25.8785041,24.9344505 C26.6486649,28.4417074 27.6607806,31.9502678 28.9472854,35.233927 C31.3909466,41.4710981 34.5302983,46.1667461 38.5201811,48.6853049 C42.0527394,50.9151839 47.1395666,51.932464 53.3925788,51.9967435 C57.6937325,52.0409584 62.2878395,51.6324131 66.8661753,50.9246236 C68.3859203,50.6896781 69.7944008,50.4378822 71.057142,50.1858666 C71.5001589,50.09745 71.8936999,50.0152271 72.2334423,49.9412739 C72.4391289,49.8965011 72.5823252,49.8641579 72.658703,49.8463193 C74.2233771,49.5198086 75.7585283,48.0632019 76.1676657,46.501023 L81.9641408,24.3687752 C82.1171551,23.784532 81.7663712,23.1871813 81.1806431,23.0345549 C80.5949149,22.8819286 79.9960458,23.2318231 79.8430315,23.8160662 L74.0465564,45.948314 C73.8477326,46.7074682 72.960337,47.5494612 72.1841319,47.711591 C72.0931211,47.732535 71.9607094,47.7624423 71.7660237,47.8048205 C71.438479,47.8761186 71.0573547,47.9557473 70.6270213,48.0416324 C69.394476,48.2876216 68.0172471,48.5338306 66.5304045,48.7636896 C62.0614536,49.4545687 57.5815835,49.8529551 53.4151712,49.8101253 C47.5327387,49.7496553 42.8095868,48.8051041 39.6925205,46.8374987 C36.1791155,44.61971 33.2784734,40.2811091 30.9891937,34.4379793 C29.7487212,31.2718123 28.7673542,27.8698446 28.0200277,24.4665735 C27.7583065,23.274714 27.5447152,22.1685873 27.3757958,21.1772232 C27.3168864,20.8314918 27.2678211,20.5252391 27.2281609,20.2620845 C27.2046801,20.1062845 27.1897169,20.0007786 27.1828293,19.9491824 C27.102926,19.3506152 26.5516836,18.9299909 25.951595,19.0096916 C25.3515064,19.0893924 24.9298129,19.6392371 25.0097163,20.2378042 C25.0182035,20.3013834 25.0348885,20.41903 25.0602277,20.587161 Z"
					      id="Path-6" fill="#B28AC9"></path>
				</g>
				<g id="Wheel-Right" transform="translate(109.000000, 53.000000)">
					<path d="M10,20 C15.5228475,20 20,15.5228475 20,10 C20,4.4771525 15.5228475,0 10,0 C4.4771525,0 0,4.4771525 0,10 C0,15.5228475 4.4771525,20 10,20 Z"
					      id="Oval-3" fill="#523166"></path>
					<path d="M10,17 C13.8659932,17 17,13.8659932 17,10 C17,6.13400675 13.8659932,3 10,3 C6.13400675,3 3,6.13400675 3,10 C3,13.8659932 6.13400675,17 10,17 Z"
					      id="Oval-3" fill="#B28AC9"></path>
					<path d="M10,15 C12.7614237,15 15,12.7614237 15,10 C15,7.23857625 12.7614237,5 10,5 C7.23857625,5 5,7.23857625 5,10 C5,12.7614237 7.23857625,15 10,15 Z"
					      id="Oval-3" fill="#FFF3EE"></path>
				</g>
				<g id="Wheel-Left" transform="translate(30.000000, 53.000000)">
					<path d="M10,20 C15.5228475,20 20,15.5228475 20,10 C20,4.4771525 15.5228475,0 10,0 C4.4771525,0 0,4.4771525 0,10 C0,15.5228475 4.4771525,20 10,20 Z"
					      id="Oval-3" fill="#523166"></path>
					<path d="M10,17 C13.8659932,17 17,13.8659932 17,10 C17,6.13400675 13.8659932,3 10,3 C6.13400675,3 3,6.13400675 3,10 C3,13.8659932 6.13400675,17 10,17 Z"
					      id="Oval-3" fill="#B28AC9"></path>
					<path d="M10,15 C12.7614237,15 15,12.7614237 15,10 C15,7.23857625 12.7614237,5 10,5 C7.23857625,5 5,7.23857625 5,10 C5,12.7614237 7.23857625,15 10,15 Z"
					      id="Oval-3" fill="#FFF3EE"></path>
				</g>
				<g id="Window" transform="translate(46.000000, 11.000000)">
					<path d="M13.1616665,0 C9.75867206,-9.63457388e-108 5.59901341,2.38167721 3.87707135,5.3089787 L2.07323986,8.37549224 C-0.728633147,13.1386764 1.47261992,17.2795387 6.97477402,17.6234234 L45,20 L62,20 L45.6762541,6.39687838 C41.436776,2.86398 33.5254411,5.76540144e-107 27.9993884,4.20086281e-107 L13.1616665,0 Z"
					      fill="#FFBDA1"></path>
					<path d="M18.6783341,3.32315992 C19.1051058,3.74979534 19.1069671,4.43964729 18.6853772,4.86110259 L10.8600999,12.6838809 C10.437218,13.1066278 9.75141301,13.1064499 9.32166593,12.6768401 C8.89489423,12.2502047 8.89303289,11.5603527 9.31462283,11.1388974 L17.1399001,3.31611907 C17.562782,2.89337221 18.248587,2.89355008 18.6783341,3.32315992 Z"
					      id="Rectangle-20" fill="#6D4784"></path>
					<path d="M24.6783341,3.32315992 C25.1051058,3.74979534 25.1069671,4.43964729 24.6853772,4.86110259 L16.8600999,12.6838809 C16.437218,13.1066278 15.751413,13.1064499 15.3216659,12.6768401 C14.8948942,12.2502047 14.8930329,11.5603527 15.3146228,11.1388974 L23.1399001,3.31611907 C23.562782,2.89337221 24.248587,2.89355008 24.6783341,3.32315992 Z"
					      id="Rectangle-20" fill="#6D4784"></path>
					<path d="M19.8600999,15.6838809 C19.437218,16.1066278 18.751413,16.1064499 18.3216659,15.6768401 C17.8948942,15.2502047 17.8930329,14.5603527 18.3146228,14.1388974 L26.1399001,6.31611907 C26.562782,5.89337221 27.248587,5.89355008 27.6783341,6.32315992 C28.1051058,6.74979534 28.1069671,7.43964729 27.6853772,7.86110259 L19.8600999,15.6838809 Z"
					      id="Rectangle-20" fill="#6D4784"></path>
				</g>
				<g id="Handle" transform="translate(60.000000, 32.000000)">
					<ellipse id="Oval-5" fill="#B28AC9" cx="5" cy="3" rx="5" ry="3"></ellipse>
					<path d="M8,3 C8,3.55228475 7.54902482,4 7.00922203,4 L2.99077797,4 C2.44358641,4 2,3.55613518 2,3 C2,2.44771525 2.45097518,2 2.99077797,2 L7.00922203,2 C7.55641359,2 8,2.44386482 8,3 Z"
					      id="Rectangle-20" fill="#523166"></path>
				</g>
			</g>
		</g>
	</g>
</svg>