<?xml version="1.0" encoding="UTF-8"?>
<svg width="1080px" height="760px" viewBox="0 0 1080 760" version="1.1" xmlns="http://www.w3.org/2000/svg" xmlns:xlink="http://www.w3.org/1999/xlink">
    <!-- Generator: sketchtool 39.1 (31720) - http://www.bohemiancoding.com/sketch -->
    <title>074EE34B-9041-4DD9-B6DA-308F13E9A5EC</title>
    <desc>Created with sketchtool.</desc>
    <defs></defs>
    <g id="Symbols" stroke="none" stroke-width="1" fill="none" fill-rule="evenodd">
        <g id="Assets/region_bg">
            <path d="M1,760 L1,5.0233719e-14" id="Path-15-Copy-14" stroke="#F3EBF6"></path>
            <path d="M255,760 L255,0" id="Path-15-Copy-13" stroke="#F3EBF6"></path>
            <path d="M1078,760 L1078,0" id="Path-15-Copy-11" stroke="#F3EBF6"></path>
            <path d="M825,760 L825,0" id="Path-15-Copy-10" stroke="#F3EBF6"></path>
            <path d="M521.49679,760 C518.011223,754.710807 516.267345,748.141165 516.267345,740.286701 C516.267345,720.773064 525.834282,711.018164 544.96432,711.018164 C546.686676,711.018164 549.122524,711.305863 552.279536,711.877424 C556.491444,712.548721 559.64462,712.882451 561.750574,712.882451 C567.681001,712.882451 570.646214,711.018164 570.646214,707.289591 C570.646214,703.940779 567.727033,702.264455 561.892505,702.264455 C559.502689,702.264455 556.153877,702.552154 551.849907,703.127551 C549.364191,703.511149 547.162338,703.699112 545.252019,703.699112 C527.17304,703.699112 518.131632,694.949239 518.131632,677.445657 C518.131632,668.546181 520.571316,661.614563 525.450684,656.639295 C530.330052,651.664028 536.544342,649.178312 544.101225,649.178312 C553.668162,649.178312 560.841446,654.341542 565.624915,664.675676 C569.069626,672.136659 573.469496,675.865233 578.824526,675.865233 C582.077438,675.769333 584.946752,674.526475 587.432468,672.136659 C589.92202,669.743007 591.164878,666.923561 591.164878,663.670649 C591.164878,657.356624 587.194637,651.997758 579.254156,647.597888 C571.313675,643.198017 560.603616,641 547.116306,641 C532.194339,641 519.758088,644.203044 509.811389,650.612969 C499.860854,657.022893 494.889422,665.580967 494.889422,676.294863 C494.889422,689.878072 504.310592,700.01657 523.152931,706.714193 C499.718922,713.887478 488,725.080871 488,740.286701 C488.059214,747.787947 490.342883,754.359047 494.851005,760 L521.49679,760 L521.49679,760 Z M565.383931,760.000002 C566.305963,758.260634 567.103597,756.3298 567.7769,754.207476 C569.691055,747.989351 571.793173,743.68538 574.090925,741.291728 C576.384842,738.901911 579.541855,737.705085 583.558127,737.705085 C586.811039,737.705085 589.730221,738.852044 592.311836,741.149796 C594.893451,743.443713 596.232209,746.458794 596.328108,750.187368 C596.328108,753.708241 595.530296,756.979288 593.934163,760 L565.383937,760 L565.383931,760.000002 Z" id="Combined-Shape" fill="#E7E1EA"></path>
        </g>
    </g>
</svg>