<?xml version="1.0" encoding="UTF-8"?>
<svg viewBox="0 0 99 11" version="1.1" xmlns="http://www.w3.org/2000/svg" xmlns:xlink="http://www.w3.org/1999/xlink">
    <g id="Symbols" stroke="none" stroke-width="1" fill="none" fill-rule="evenodd">
        <g id="Assets/ic_footer_year" fill="#FFFFFF">
            <path d="M9.26611328,9.42919922 C9.3504236,9.52262417 9.43587196,9.58984354 9.52246094,9.63085938 C9.60904991,9.67187521 9.7161452,9.69694006 9.84375,9.70605469 L9.84375,10 C8.85937008,9.96354148 8.219077,9.9453125 7.92285156,9.9453125 C7.58561029,9.9453125 6.83366469,9.96354148 5.66699219,10 L5.66699219,9.70605469 C5.99511883,9.70605469 6.23209562,9.68896501 6.37792969,9.65478516 C6.52376375,9.6206053 6.59667969,9.56022179 6.59667969,9.47363281 C6.59667969,9.40983041 6.56250034,9.32779998 6.49414063,9.22753906 L4.13574219,5.76855469 L3.02148438,7.29980469 C2.59309682,7.87402631 2.37890625,8.36393026 2.37890625,8.76953125 C2.37890625,9.05664206 2.48372291,9.28108643 2.69335938,9.44287109 C2.90299584,9.60465576 3.19465959,9.69693999 3.56835938,9.71972656 L3.56835938,10 C3.03515358,9.97265611 2.29915834,9.95898438 1.36035156,9.95898438 C0.79524457,9.95898438 0.364584814,9.97265611 0.068359375,10 L0.068359375,9.71972656 C0.720055342,9.5100901 1.39680639,8.94043434 2.09863281,8.01074219 L3.95800781,5.50195312 L0.936523438,1.06542969 C0.804361318,0.87402248 0.698405347,0.732747852 0.618652344,0.641601562 C0.538899341,0.550455273 0.4557296,0.484375205 0.369140625,0.443359375 C0.28255165,0.402343545 0.173177744,0.377278691 0.041015625,0.368164062 L0.041015625,0.07421875 C1.08008332,0.110677266 1.74771987,0.12890625 2.04394531,0.12890625 C2.8597046,0.12890625 3.57291361,0.110677266 4.18359375,0.07421875 L4.18359375,0.368164062 C3.87369637,0.368164062 3.64811269,0.38867167 3.50683594,0.4296875 C3.36555919,0.47070333 3.29492188,0.539062021 3.29492188,0.634765625 C3.29492188,0.707682656 3.33137984,0.796548955 3.40429688,0.901367188 L5.48925781,3.94335938 L6.52148437,2.54882812 C6.96354388,1.97916382 7.18457031,1.50976747 7.18457031,1.140625 C7.18457031,0.908201963 7.09684333,0.727051431 6.92138672,0.597167969 C6.74593011,0.467284507 6.49186364,0.390950635 6.15917969,0.368164062 L6.15917969,0.087890625 C6.69238548,0.115234512 7.28027022,0.12890625 7.92285156,0.12890625 C8.48795855,0.12890625 8.91861831,0.115234512 9.21484375,0.087890625 L9.21484375,0.368164062 C8.91861831,0.454753037 8.61897938,0.6290677 8.31591797,0.891113281 C8.01285656,1.15315886 7.72461074,1.46874815 7.45117188,1.83789062 L5.66699219,4.20996094 L8.94824219,9.00878906 C9.07584699,9.19563896 9.18180296,9.33577427 9.26611328,9.42919922 L9.26611328,9.42919922 Z M20.9389648,9.42919922 C21.0232752,9.52262417 21.1087235,9.58984354 21.1953125,9.63085938 C21.2819015,9.67187521 21.3889968,9.69694006 21.5166016,9.70605469 L21.5166016,10 C20.5322216,9.96354148 19.8919286,9.9453125 19.5957031,9.9453125 C19.2584619,9.9453125 18.5065163,9.96354148 17.3398438,10 L17.3398438,9.70605469 C17.6679704,9.70605469 17.9049472,9.68896501 18.0507812,9.65478516 C18.1966153,9.6206053 18.2695312,9.56022179 18.2695312,9.47363281 C18.2695312,9.40983041 18.2353519,9.32779998 18.1669922,9.22753906 L15.8085938,5.76855469 L14.6943359,7.29980469 C14.2659484,7.87402631 14.0517578,8.36393026 14.0517578,8.76953125 C14.0517578,9.05664206 14.1565745,9.28108643 14.3662109,9.44287109 C14.5758474,9.60465576 14.8675112,9.69693999 15.2412109,9.71972656 L15.2412109,10 C14.7080051,9.97265611 13.9720099,9.95898438 13.0332031,9.95898438 C12.4680961,9.95898438 12.0374364,9.97265611 11.7412109,10 L11.7412109,9.71972656 C12.3929069,9.5100901 13.0696579,8.94043434 13.7714844,8.01074219 L15.6308594,5.50195312 L12.609375,1.06542969 C12.4772129,0.87402248 12.3712569,0.732747852 12.2915039,0.641601562 C12.2117509,0.550455273 12.1285812,0.484375205 12.0419922,0.443359375 C11.9554032,0.402343545 11.8460293,0.377278691 11.7138672,0.368164062 L11.7138672,0.07421875 C12.7529349,0.110677266 13.4205714,0.12890625 13.7167969,0.12890625 C14.5325562,0.12890625 15.2457652,0.110677266 15.8564453,0.07421875 L15.8564453,0.368164062 C15.5465479,0.368164062 15.3209642,0.38867167 15.1796875,0.4296875 C15.0384108,0.47070333 14.9677734,0.539062021 14.9677734,0.634765625 C14.9677734,0.707682656 15.0042314,0.796548955 15.0771484,0.901367188 L17.1621094,3.94335938 L18.1943359,2.54882812 C18.6363954,1.97916382 18.8574219,1.50976747 18.8574219,1.140625 C18.8574219,0.908201963 18.7696949,0.727051431 18.5942383,0.597167969 C18.4187817,0.467284507 18.1647152,0.390950635 17.8320312,0.368164062 L17.8320312,0.087890625 C18.365237,0.115234512 18.9531218,0.12890625 19.5957031,0.12890625 C20.1608101,0.12890625 20.5914699,0.115234512 20.8876953,0.087890625 L20.8876953,0.368164062 C20.5914699,0.454753037 20.2918309,0.6290677 19.9887695,0.891113281 C19.6857081,1.15315886 19.3974623,1.46874815 19.1240234,1.83789062 L17.3398438,4.20996094 L20.6210938,9.00878906 C20.7486986,9.19563896 20.8546545,9.33577427 20.9389648,9.42919922 L20.9389648,9.42919922 Z M79.9584961,9.42919922 C80.0428064,9.52262417 80.1282548,9.58984354 80.2148438,9.63085938 C80.3014327,9.67187521 80.408528,9.69694006 80.5361328,9.70605469 L80.5361328,10 C79.5517529,9.96354148 78.9114598,9.9453125 78.6152344,9.9453125 C78.2779931,9.9453125 77.5260475,9.96354148 76.359375,10 L76.359375,9.70605469 C76.6875016,9.70605469 76.9244784,9.68896501 77.0703125,9.65478516 C77.2161466,9.6206053 77.2890625,9.56022179 77.2890625,9.47363281 C77.2890625,9.40983041 77.2548832,9.32779998 77.1865234,9.22753906 L74.828125,5.76855469 L73.7138672,7.29980469 C73.2854796,7.87402631 73.0712891,8.36393026 73.0712891,8.76953125 C73.0712891,9.05664206 73.1761057,9.28108643 73.3857422,9.44287109 C73.5953787,9.60465576 73.8870424,9.69693999 74.2607422,9.71972656 L74.2607422,10 C73.7275364,9.97265611 72.9915412,9.95898438 72.0527344,9.95898438 C71.4876274,9.95898438 71.0569676,9.97265611 70.7607422,10 L70.7607422,9.71972656 C71.4124382,9.5100901 72.0891892,8.94043434 72.7910156,8.01074219 L74.6503906,5.50195312 L71.6289062,1.06542969 C71.4967441,0.87402248 71.3907882,0.732747852 71.3110352,0.641601562 C71.2312822,0.550455273 71.1481124,0.484375205 71.0615234,0.443359375 C70.9749345,0.402343545 70.8655606,0.377278691 70.7333984,0.368164062 L70.7333984,0.07421875 C71.7724661,0.110677266 72.4401027,0.12890625 72.7363281,0.12890625 C73.5520874,0.12890625 74.2652964,0.110677266 74.8759766,0.07421875 L74.8759766,0.368164062 C74.5660792,0.368164062 74.3404955,0.38867167 74.1992188,0.4296875 C74.057942,0.47070333 73.9873047,0.539062021 73.9873047,0.634765625 C73.9873047,0.707682656 74.0237627,0.796548955 74.0966797,0.901367188 L76.1816406,3.94335938 L77.2138672,2.54882812 C77.6559267,1.97916382 77.8769531,1.50976747 77.8769531,1.140625 C77.8769531,0.908201963 77.7892261,0.727051431 77.6137695,0.597167969 C77.4383129,0.467284507 77.1842465,0.390950635 76.8515625,0.368164062 L76.8515625,0.087890625 C77.3847683,0.115234512 77.972653,0.12890625 78.6152344,0.12890625 C79.1803414,0.12890625 79.6110011,0.115234512 79.9072266,0.087890625 L79.9072266,0.368164062 C79.6110011,0.454753037 79.3113622,0.6290677 79.0083008,0.891113281 C78.7052394,1.15315886 78.4169936,1.46874815 78.1435547,1.83789062 L76.359375,4.20996094 L79.640625,9.00878906 C79.7682298,9.19563896 79.8741858,9.33577427 79.9584961,9.42919922 L79.9584961,9.42919922 Z M90.7939453,0.12890625 C91.2223329,0.12890625 91.5777981,0.115234512 91.8603516,0.087890625 L91.8603516,0.368164062 C91.6279285,0.459310352 91.3977876,0.638182261 91.1699219,0.904785156 C90.9420562,1.17138805 90.7415373,1.54850017 90.5683594,2.03613281 L87.6152344,10.0273438 C87.5104161,10.0182291 87.3463553,10.0136719 87.1230469,10.0136719 C86.9088531,10.0136719 86.7516281,10.0182291 86.6513672,10.0273438 L83.0761719,1.26367188 C82.9576817,0.953774492 82.819825,0.729330122 82.6625977,0.590332031 C82.5053703,0.45133394 82.3492846,0.377278691 82.1943359,0.368164062 L82.1943359,0.087890625 C82.7548856,0.115234512 83.465816,0.12890625 84.3271484,0.12890625 C85.2796272,0.12890625 85.9882789,0.115234512 86.453125,0.087890625 L86.453125,0.368164062 C86.1022118,0.381836006 85.8504239,0.423990532 85.6977539,0.494628906 C85.5450839,0.56526728 85.46875,0.696288105 85.46875,0.887695312 C85.46875,1.03352938 85.5257156,1.25227719 85.6396484,1.54394531 L88.1074219,7.8125 L89.8300781,3.17089844 C90.089845,2.43717081 90.2197266,1.86751505 90.2197266,1.46191406 C90.2197266,1.08821428 90.1206065,0.815918823 89.9223633,0.645019531 C89.7241201,0.474120239 89.431317,0.381836006 89.0439453,0.368164062 L89.0439453,0.087890625 C89.6728547,0.115234512 90.2561822,0.12890625 90.7939453,0.12890625 L90.7939453,0.12890625 Z M97.8251953,0.477539062 C97.6839186,0.53678415 97.5882164,0.646158057 97.5380859,0.805664063 C97.4879555,0.965170068 97.4628906,1.22037585 97.4628906,1.57128906 L97.4628906,8.51660156 C97.4628906,8.86751478 97.4879555,9.12272056 97.5380859,9.28222656 C97.5882164,9.44173257 97.6839186,9.55110647 97.8251953,9.61035156 C97.9664721,9.66959665 98.1943344,9.70605462 98.5087891,9.71972656 L98.5087891,10 C98.0120418,9.97265611 97.3079473,9.95898438 96.3964844,9.95898438 C95.3984325,9.95898438 94.6624373,9.97265611 94.1884766,10 L94.1884766,9.71972656 C94.4983739,9.70605462 94.7239576,9.66959665 94.8652344,9.61035156 C95.0065111,9.55110647 95.1033526,9.44173257 95.1557617,9.28222656 C95.2081708,9.12272056 95.234375,8.86751478 95.234375,8.51660156 L95.234375,1.57128906 C95.234375,1.22037585 95.2081708,0.965170068 95.1557617,0.805664063 C95.1033526,0.646158057 95.0065111,0.53678415 94.8652344,0.477539062 C94.7239576,0.418293975 94.4983739,0.381836006 94.1884766,0.368164062 L94.1884766,0.087890625 C94.65788,0.115234512 95.3938752,0.12890625 96.3964844,0.12890625 C97.3079473,0.12890625 98.0120418,0.115234512 98.5087891,0.087890625 L98.5087891,0.368164062 C98.1943344,0.381836006 97.9664721,0.418293975 97.8251953,0.477539062 L97.8251953,0.477539062 Z" id="ХХ-XVI"></path>
            <circle id="Oval" opacity="0.400000006" cx="43.5" cy="1.5" r="1.5"></circle>
            <circle id="Oval" opacity="0.400000006" cx="51.5" cy="1.5" r="1.5"></circle>
            <circle id="Oval" opacity="0.400000006" cx="51.5" cy="9.5" r="1.5"></circle>
            <circle id="Oval" opacity="0.400000006" cx="43.5" cy="9.5" r="1.5"></circle>
        </g>
    </g>
</svg>