<svg xmlns="http://www.w3.org/2000/svg"  viewBox="0 0 630 420">
<rect width="630" height="420" fill="#0064c8"/>
<rect width="630" height="300" fill="#e00000"/>
<path fill="#fff" d="M-90,280q45,22 90,0 t90,0 t90,0 t90,0 t90,0 t90,0 t90,0 t90,0 v35q-45,-22 -90,0 t-90,0 t-90,0 t-90,0 t-90,0 t-90,0 t-90,0 t-90,0z"/>
</svg>