<?xml version="1.0" encoding="utf-8"?>
<svg xmlns="http://www.w3.org/2000/svg">
<rect width="600" height="300" fill="#ffcb05"/>
<rect width="600" height="225" fill="#fff"/>
<rect width="600" height="150" fill="#282878"/>
<g fill="#ffcb05">
<path d="M110.7,82.5a40,40 0 1,0 78.6,0a40,40 0 0,1 -78.6,0"/>
<circle cx="150" cy="80" r="30"/>
<path d="m149.7,10c0.22932,1.69709,1.23662,3.07944,2.20254,4.42578,0.74165,1.37779,0.77604,3.00346,0.29746,4.47422-0.23043,1.52235-0.49686,3.25344,0.51113,4.5748,1.07092,1.43924,2.07705,3.13148,1.79278,5.00508-0.0364,1.94524-1.33379,3.75109-1.09317,5.67735,0.50481,1.27779,1.97438,2.91403,2.79688,0.88398,1.03988-1.64834-0.50575-3.47861-0.0406-5.2293,0.32356-1.73081,1.74668-3.19981,1.37891-5.07148-0.0348-1.64517-2.32474-3.20046-0.5459-4.74043,0.62535-0.71792,1.65938-2.16444,1.56875-0.33125,1.06091,1.25989,2.29823,2.67965,2.12656,4.45762-0.15666,1.75579-0.84211,3.77857,0.80469,5.07363,1.67645,1.7682,3.14184,3.98419,3.16309,6.50879,0.18788,2.1947-0.27825,4.53485-1.72774,6.24258-1.90418,1.57951-3.96161,3.22151-6.47117,3.61928-1.79312,0.26202-3.5511,0.74318-4.71691,2.24419-1.65068,1.36791-3.28407,0.0451-4.3002-1.28457-1.76083-0.69674-3.73318-0.50788-5.52988-1.09746-2.38322-0.67928-4.64504-2.16728-5.7408-4.45097-1.1308-2.27737-1.27567-4.91886-1.1094-7.41543,0.0486-2.007,1.18612-3.77551,2.58301-5.14141,1.37801-1.2185,0.81606-3.19937,0.87637-4.79629,0.694-1.80223,2.56575-2.72611,3.58301-4.3084,1.19311-1.47328,0.85614,2.09226,0.8871,2.83203,0.0537,1.2983-1.3793,2.10255-1.09648,3.42399-0.15569,1.71252,1.86255,2.54646,2.0375,4.17367,0.73837,1.63036-0.95681,3.38095,0.1,4.88984,0.55026,0.74174,1.99714,2.49495,2.1668,0.56797,0.85953-1.49995,0.75004-3.2445,0.0457-4.78281-0.26458-1.72411-1.73278-3.33347-0.9375-5.10625,0.59962-1.60704,2.52818-2.43365,2.65-4.28125,0.24493-1.69103-0.90679-3.14432-1.12969-4.77812-0.48633-1.8405,0.35072-4.02282,1.74219-5.28907,0.36276-0.3361,0.69943-0.71043,1.125-0.97031z"/>
</g>
</svg>