<?xml version="1.0" encoding="UTF-8"?>
<svg xmlns="http://www.w3.org/2000/svg" viewBox="0 0 9 6">
<rect fill="#D81E05" width="9" height="6"/>
<rect fill="#379BFF" width="9" height="4"/>
<rect fill="#00923F" width="9" height="2"/>
</svg>