<?xml version="1.0" encoding="UTF-8"?>
<svg xmlns="http://www.w3.org/2000/svg" viewBox="0 0 9 6">
<rect fill="white" width="9" height="6"/>
<rect fill="#009B3A" width="9" height="4"/>
<rect fill="#0039A6" width="9" height="2"/>
</svg>