<?xml version="1.0" standalone="no"?>
<svg xmlns="http://www.w3.org/2000/svg" viewBox="0 0 9 6">
<rect width="9" height="6" fill="#ff2400"/>
<rect width="9" height="4" fill="#fce016"/>
<rect width="9" height="2" fill="#0038a8"/>
<rect width="1.2" height="6" fill="white"/>
</svg>