<?xml version="1.0" encoding="UTF-8"?>
<svg viewBox="0 0 152 120" version="1.1" xmlns="http://www.w3.org/2000/svg" xmlns:xlink="http://www.w3.org/1999/xlink">
    <!-- Generator: sketchtool 39.1 (31720) - http://www.bohemiancoding.com/sketch -->
    <title>E32A0F5A-7846-4B83-845A-797488FD88A6</title>
    <desc>Created with sketchtool.</desc>
    <defs></defs>
    <g id="Symbols" stroke="none" stroke-width="1" fill="none" fill-rule="evenodd">
        <g id="Assets/pic_03_header">
            <g id="pic_03_header">
                <g id="Wires" transform="translate(6.000000, 59.000000)">
                    <path d="M0,4 L0,52 C0,54.3955832 1.60386339,56 4,56 L44,55.9999997 C46.240179,55.9999996 47.8440423,54.3955829 47.8440423,52.4164344 C47.8440423,50.437286 46.2401789,48.8328693 44,49 L7,49 L7,7 L14,7 C15.6326466,7.16713038 17.2365099,5.56271359 17.2365099,3.58356519 C17.2365099,1.60441678 15.6326466,0 14,0 L4,0 C1.60386337,0 0,1.60441678 0,4 Z M142,55.9999987 C144.396137,55.9999986 146,54.3955819 146,52 L146,4 C146,1.60441678 144.396137,0 142,0 L123.881082,0 C121.902616,0 121.902616,7.16713038 124,7 L139,7 L139,49 L99,49 C97.0531608,48.8328687 97.0531609,55.9999991 99,55.9999991 L142,55.9999987 Z" id="Path-8" fill="#FFBDA1"></path>
                    <path d="M2,4 L2,53 C2,53.3927446 2.60347983,54 3,54 L44,53.9999997 C44.9090959,53.9999997 45.5125757,53.3927443 45.5125757,52.6436568 C45.5125757,51.8945693 44.9090959,51.2873139 44,51 L5,51 L5,5 L13,5 C14.1982037,4.71268571 14.8016836,4.10543033 14.8016836,3.35634286 C14.8016836,2.60725538 14.1982037,2 13.4537737,2 L3.3479099,2 C2.60347982,2 2,2.60725538 2,4 Z M142,53.9999986 C143.39652,53.9999986 144,53.3927433 144,52 L144,4 C144,2.60725538 143.39652,2 142,2 L124,2 C123.308474,2 123.308474,4.71268571 124,5 L140.999998,5 L140.999998,51 L99,51 C98.3751037,51.2873134 97.7716239,51.8945688 97.7716239,52.6436562 C97.7716239,53.3927437 98.3751037,53.9999991 99,53.9999991 L142,53.9999986 Z" id="Path-8" fill="#FFFFFF"></path>
                </g>
                <g id="Right" transform="translate(135.500000, 62.000000) scale(-1, 1) translate(-135.500000, -62.000000) translate(132.000000, 55.000000)">
                    <path d="M7,14 L3.5,14 C1.56700338,14 -1.91091436e-13,12.4347734 -1.98931736e-13,10.5033226 L-2.27373675e-13,3.49667737 C-2.35212802e-13,1.56551578 1.57093664,0 3.5,0 L7,0 L7,14 Z" id="1" fill="#B28AC9"></path>
                    <path d="M7,14 L3,14 C0.80839202,13.5114504 -2.84217094e-13,12.703256 -2.27373675e-13,10 L-2.27373675e-13,7 L7,7 L7,14 Z" id="Combined-Shape" fill="#996FB3"></path>
                </g>
                <g id="Left" transform="translate(17.000000, 55.000000)">
                    <path d="M7,14 L3.5,14 C1.56700338,14 -1.91091436e-13,12.4347734 -1.98931736e-13,10.5033226 L-2.27373675e-13,3.49667737 C-2.35212802e-13,1.56551578 1.57093664,0 3.5,0 L7,0 L7,14 Z" id="1" fill="#B28AC9"></path>
                    <path d="M7,14 L3,14 C0.80839202,13.5114504 -2.84217094e-13,12.703256 -2.27373675e-13,10 L-2.27373675e-13,7 L7,7 L7,14 Z" id="Combined-Shape" fill="#996FB3"></path>
                </g>
                <g id="Transistor" transform="translate(24.000000, 28.000000)">
                    <rect id="Rectangle" fill="#FFBDA1" x="0" y="0" width="108" height="68" rx="7"></rect>
                    <path d="M7.1948193,0 C3.21523954,0 0,3.22209716 0,7.19675543 L0,60.8032446 C0,64.7773569 3.22123032,68 7.1948193,68 L18.4457053,68 L86,0 L7.1948193,0 Z" id="Combined-Shape" fill="#523166"></path>
                    <polygon id="Combined-Shape" fill="#6D4784" points="32.0578513 68 50.7312585 49.9673002 55.8592903 55.2775326 42.6847897 68"></polygon>
                    <path d="M99.6824355,3 C102.066961,3 104,4.92915343 104,7.31933213 L104,55.6806679 C104,58.0661691 102.066828,60 99.6824355,60 L9.31756454,60 C6.93303949,60 5,58.0708466 5,55.6806679 L5,7.31933213 C5,4.93383087 6.93317239,3 9.31756454,3 L99.6824355,3 Z" id="Rectangle-23" fill="#B28AC9"></path>
                    <path d="M98.1147145,5 C99.7082137,5 101,6.29190881 101,7.87960075 L101,57.1203993 C101,58.7107588 99.703076,60 98.1147145,60 L10.8852855,60 C9.29178632,60 8,58.7080912 8,57.1203993 L8,7.87960075 C8,6.28924117 9.29692402,5 10.8852855,5 L98.1147145,5 Z" id="Rectangle-23" fill="#6D4784"></path>
                </g>
                <g id="Lines" transform="translate(42.000000, 42.000000)">
                    <path d="M31.4998988,0 C32.8806666,0 34,1.10966206 34,2.5 C34,3.88071187 32.8880894,5 31.4998988,5 L2.50010118,5 C1.11933342,5 0,3.89033794 0,2.5 C0,1.11928813 1.11191059,0 2.50010118,0 L31.4998988,0 Z" fill="#FFFFFF"></path>
                    <path d="M64.3366713,0 C65.7250771,0 66.8506024,1.11634344 66.8506024,2.51505275 C66.8506024,3.90407803 65.7232121,5.0301055 64.3366713,5.0301055 L43.5139311,5.0301055 C42.1255253,5.0301055 41,3.91376206 41,2.51505275 C41,1.12602747 42.1273903,0 43.5139311,0 L64.3366713,0 Z" fill="#B28AC9"></path>
                    <path d="M45.5023767,11 C46.881776,11 48,12.1096621 48,13.5 C48,14.8807119 46.880935,16 45.5023767,16 L21.4976233,16 C20.118224,16 19,14.8903379 19,13.5 C19,12.1192881 20.119065,11 21.4976233,11 L45.5023767,11 Z" fill="#FFBDA1"></path>
                    <path d="M11.5039297,22 C12.8824713,22 14,23.1096621 14,24.5 C14,25.8807119 12.8847265,27 11.5039297,27 L5.49607027,27 C4.11752872,27 3,25.8903379 3,24.5 C3,23.1192881 4.11527349,22 5.49607027,22 L11.5039297,22 Z" fill="#FFBDA1"></path>
                    <path d="M74.50626,22 C75.8835146,22 77,23.1096621 77,24.5 C77,25.8807119 75.884553,27 74.50626,27 L32.49374,27 C31.1164854,27 30,25.8903379 30,24.5 C30,23.1192881 31.115447,22 32.49374,22 L74.50626,22 Z" fill="#FFFFFF"></path>
                </g>
                <g id="Lamp" transform="translate(57.000000, 0.000000)">
                    <path d="M19,26 L17,26 L17,20.4844763 C14.587885,18.8698357 13,16.1201065 13,13 C13,8.03014627 17.0287232,4 22,4 C26.9712768,4 31,8.03014627 31,13 C31,16.1201065 29.412115,18.8698357 27,20.4844763 L27,26 L25,26 L25,19.3263406 C27.3647241,18.2029762 29,15.7927749 29,13 C29,9.13331756 25.8652986,6 22,6 C18.1347014,6 15,9.13331756 15,13 C15,15.7927749 16.6352759,18.2029762 19,19.3263406 L19,26 Z" id="Combined-Shape" fill="#FFBDA1"></path>
                    <circle id="1" fill="#B28AC9" cx="22" cy="13" r="3"></circle>
                    <path d="M22,10 C23.6568542,10 25,11.3431458 25,13 C25,14.6568542 23.6568542,16 22,16 L22,10 Z" id="Combined-Shape" fill="#9869B4"></path>
                    <path d="M15,29 L15,27 C15,25.8954305 15.8970601,25 17.0058587,25 L26.9941413,25 C28.1019465,25 29,25.8877296 29,27 L29,29 L15,29 Z" id="Rectangle-26" fill="#523166"></path>
                    <polygon id="Path-7" fill="#FFBDA1" points="0 1 3 9 5 7 8 10 5 3 4 4"></polygon>
                    <polygon id="Path-7" fill="#9869B4" transform="translate(38.130786, 4.500000) scale(-1, 1) translate(-38.130786, -4.500000) " points="34.1307863 0 37.1307863 8 39.1307863 6 42.1307863 9 39.1307863 2 38.1307863 3"></polygon>
                </g>
                <g id="Contacts" transform="translate(50.000000, 102.000000)">
                    <path d="M2.49583293,2 C1.10781244,2 0,3.1205952 0,4.50291944 L0,13.4970806 C0,14.8779869 1.11742247,16 2.49583293,16 C3.06242549,16 3.58232732,15.8132766 3.99924629,15.4982483 C3.9953246,15.4387325 3.99558009,2.56902218 4,2.50586186 C3.58172984,2.18841956 3.06069523,2 2.49583293,2 Z" id="Combined-Shape" fill="#9869B4"></path>
                    <path d="M10,2.69478187 C10,3 10,0 7,0 C5.2338933,0 4,1.20649494 4,2.69478187 L4,15.3052181 C4,16.7910192 5.23080392,18 7,18 C9,18 10,16 10,15.3052181 L10,9.79322034 L12,9.79322034 L12,13.8943842 C12.1672817,14.3864253 12.5775496,14.7966102 13,14.7966102 C13.5932604,14.7966102 14,14.3926698 14,13.8943842 L14,4.89883613 C14,4.40679503 13.589732,3.99661017 13,3.99661017 C12.5740213,3.99661017 12.1672817,4.40055049 12,5 L12,7.99322034 L10,7.99322034 L10,2.69478187 Z" id="Combined-Shape" fill="#523166"></path>
                    <polygon id="Path-7" fill="#FFBDA1" points="35 10 27 12 28 9 23 8 31 7 30 9"></polygon>
                    <path d="M51,11 L47.7970821,11 C47.3241859,12.2690067 46.2611259,13 45.0293675,13 C43.356294,13 42,11.6684055 42,10 C42,8.34314575 43.3596984,7 45.0293675,7 C46.4315619,7 47.6112495,7.93531623 47.9564881,9 L51,9 L51,11 Z" id="Combined-Shape" fill="#523166"></path>
                    <path d="M56,14.4970806 C56,15.8794048 54.8903379,17 53.5,17 C52.1192881,17 51,15.8779869 51,14.4970806 L51,5.50291944 C51,4.1205952 52.1096621,3 53.5,3 C54.8807119,3 56,4.12201312 56,5.50291944 L56,14.4970806 Z" id="Rectangle-31" fill="#9869B4"></path>
                </g>
                <g id="Pult" transform="translate(0.000000, 74.000000)">
                    <path d="M19,14 L19,26 C18.8493976,27.2046633 17.6416088,28.4122137 16.1487385,28.4122137 L2.7006591,28.4122137 C1.20912626,28.4122137 0,27.2046786 0,25.7150743 L0,14 L0,23 C0,24.5023885 1.20912626,25.7099237 2.7006591,25.7099237 L16.1487385,25.7099237 C17.6416088,25.7099237 18.8493976,24.5023732 19,23.0127843 L18.8493976,14 L19,14 Z" id="Combined-Shape" fill="#523166"></path>
                    <path d="M16.2979412,0 C17.7902471,0 19,1.20753517 19,2.69713941 L19,23.424998 C19,24.914587 17.7825613,26.1221374 16.2979412,26.1221374 L2.70205882,26.1221374 C1.20975294,26.1221374 0,24.9146022 0,23.424998 L0,2.69713941 C0,1.20755045 1.21743874,0 2.70205882,0 L16.2979412,0 Z" id="Rectangle-29" fill="#AC8CC0"></path>
                    <path d="M11.9968394,11.8420758 C11.1556193,12.5097855 10.0925695,12.9083969 8.93674699,12.9083969 C6.21025691,12.9083969 4,10.6903267 4,7.95419847 C4,5.21807021 6.21025691,3 8.93674699,3 C11.6632371,3 13.873494,5.21807021 13.873494,7.95419847 C13.873494,8.87964105 13.6206406,9.74581778 13.1804816,10.4869491 L10.7818884,8.08835586 L9.51250394,9.35774032 L11.9968394,11.8420758 L11.9968394,11.8420758 Z" id="Combined-Shape" fill="#523166"></path>
                    <circle id="Oval-7" fill="#6D4784" cx="15.5" cy="15.5" r="1.5"></circle>
                    <path d="M6,24 C7.1045695,24 8,23.1045695 8,22 C8,20.8954305 7.1045695,20 6,20 C4.8954305,20 4,20.8954305 4,22 C4,23.1045695 4.8954305,24 6,24 Z" id="Oval-8" fill="#FFFFFF"></path>
                    <ellipse id="Oval-8" fill="#FFFFFF" cx="13" cy="22" rx="2" ry="2"></ellipse>
                </g>
            </g>
        </g>
    </g>
</svg>