<?xml version="1.0" encoding="UTF-8"?>
<svg viewBox="0 0 99 130" version="1.1" xmlns="http://www.w3.org/2000/svg" xmlns:xlink="http://www.w3.org/1999/xlink">
    <!-- Generator: sketchtool 39.1 (31720) - http://www.bohemiancoding.com/sketch -->
    <title>17494FC1-39AA-48C2-8409-E83130853BF1</title>
    <desc>Created with sketchtool.</desc>
    <defs></defs>
    <g id="Symbols" stroke="none" stroke-width="1" fill="none" fill-rule="evenodd">
        <g id="Assets/pic_08_header">
            <g id="pic_08_header">
                <g id="Top" transform="translate(35.000000, 0.000000)">
                    <path d="M7,24 L17,28.7958188 L17,35.989547 L7,31.1937282 L7,24 L7,24 Z M7,33.5052265 L17,38.3010453 L17,45.4947735 L7,40.6989547 L7,33.5052265 L7,33.5052265 Z M7,43.010453 L17,47.8062718 L17,55 L7,50.2041812 L7,43.010453 L7,43.010453 Z" id="Combined-Shape" fill="#FFBDA1"></path>
                    <path d="M31,24 L21,28.7958188 L21,35.989547 L31,31.1937282 L31,24 L31,24 Z M31,33.5052265 L21,38.3010453 L21,45.4947735 L31,40.6989547 L31,33.5052265 L31,33.5052265 Z M31,43.010453 L21,47.8062718 L21,55 L31,50.2041812 L31,43.010453 L31,43.010453 Z" id="Combined-Shape" fill="#6D4784"></path>
                    <rect id="Rectangle-50" fill="#B28AC9" x="7" y="6" width="4" height="14"></rect>
                    <rect id="Rectangle-50" fill="#B28AC9" x="27" y="6" width="4" height="14"></rect>
                    <rect id="Rectangle-50" fill="#FFBDA1" x="17" y="0" width="4" height="26"></rect>
                    <rect id="Rectangle-51" fill="#6D4784" x="3" y="58" width="32" height="7"></rect>
                    <rect id="Rectangle-51" fill="#523166" x="19" y="58" width="16" height="7"></rect>
                    <rect id="Rectangle-18" fill="#B28AC9" x="0" y="65" width="38" height="3"></rect>
                    <rect id="Rectangle-18" fill="#523166" x="11" y="68" width="15" height="3"></rect>
                </g>
                <g id="Bottom" transform="translate(0.000000, 73.000000)">
                    <path d="M84.9680327,14.5538191 L78.4461809,8.03196735 C78.7980706,7.43645409 79,6.74180862 79,6 C79,3.790861 77.209139,2 75,2 C72.790861,2 71,3.790861 71,6 C71,8.209139 72.790861,10 75,10 C75.7418086,10 76.4364541,9.79807061 77.0319673,9.44618091 L83.5538191,15.9680327 C83.2019294,16.5635459 83,17.2581914 83,18 C83,20.209139 84.790861,22 87,22 C89.209139,22 91,20.209139 91,18 C91,15.790861 89.209139,14 87,14 C86.2581914,14 85.5635459,14.2019294 84.9680327,14.5538191 Z M91.1260175,42 L79.9309412,42 L72,34 L72,20.8739825 C73.7252272,20.4299397 75,18.8638394 75,17 C75,14.790861 73.209139,13 71,13 C68.790861,13 67,14.790861 67,17 C67,18.8638394 68.2747728,20.4299397 70,20.8739825 L70,35 L79.1176567,44 L91.1260175,44 C91.5700603,45.7252272 93.1361606,47 95,47 C97.209139,47 99,45.209139 99,43 C99,40.790861 97.209139,39 95,39 C93.1361606,39 91.5700603,40.2747728 91.1260175,42 Z M67.5642746,45.9504414 L61.7071068,39.7071068 L61.7071068,11.7071068 L56.6685884,6.97975425 C56.1267086,7.46537589 55.4515977,7.80534704 54.7048207,7.93810269 L54.7048219,20.0768096 L54.7048219,20.4910232 L54.4119287,20.7839165 L45.362776,29.8330692 C45.7659795,30.457496 46,31.2014188 46,32 C46,34.209139 44.209139,36 42,36 C41.2007671,36 40.4562819,35.7655974 39.8315407,35.3617885 L27.137451,48.0000001 L9.7048219,48.0000001 L10.3767642,47.7677785 L7.33473371,50.7902442 C7.75510878,51.4233605 8,52.1830815 8,53 C8,55.209139 6.209139,57 4,57 C1.790861,57 0,55.209139 0,53 C0,50.790861 1.790861,49 4,49 C4.66269243,49 5.28774545,49.1611535 5.83810756,49.4464091 L9.2596173,46.0000001 L26.3184083,46.0000001 L38.4743633,33.8910646 C38.1717041,33.3279793 38,32.6840415 38,32 C38,29.790861 39.790861,28 42,28 C42.6845656,28 43.3289661,28.1719673 43.8923588,28.4750593 L52.9977151,19.3697029 L52.7048219,20.0768098 L52.7048207,7.78565988 C52.0656745,7.56704556 51.4994822,7.19112153 51.0524331,6.70407712 L45.720092,11.7071068 L45.720092,17.1234651 L30.1979084,33.5968286 C30.701502,34.2658995 31,35.0980908 31,36 C31,38.209139 29.209139,40 27,40 C24.790861,40 23,38.209139 23,36 C23,33.790861 24.790861,32 27,32 C27.5840937,32 28.1389469,32.1251932 28.6391899,32.3502099 L43.720092,16.7071068 L43.720092,10.7071068 L50.0902083,4.84865663 C50.0311173,4.57513477 50,4.29120131 50,4 C50,1.790861 51.790861,0 54,0 C56.209139,0 58,1.790861 58,4 C58,4.44368847 57.9277609,4.8705046 57.7944028,5.26932842 L63.7071068,10.7071068 L63.7071068,38.7071068 L68.996106,44.5373843 C69.5853319,44.1956493 70.2698178,44 71,44 C73.209139,44 75,45.790861 75,48 C75,50.209139 73.209139,52 71,52 C68.790861,52 67,50.209139 67,48 C67,47.2508751 67.2059322,46.5498482 67.5642746,45.9504414 Z M51.9844208,35.4558122 L43.4558121,43.9844206 C43.8017526,44.5762745 44,45.2649857 44,46 C44,48.209139 42.209139,50 40,50 C37.790861,50 36,48.209139 36,46 C36,43.790861 37.790861,42 40,42 C40.7485962,42 41.4491623,42.2056416 42.0482894,42.5635162 L50.5635163,34.0482896 C50.2056417,33.4491624 50,32.7485963 50,32 C50,29.790861 51.790861,28 54,28 C56.209139,28 58,29.790861 58,32 C58,34.209139 56.209139,36 54,36 C53.2649857,36 52.5762746,35.8017527 51.9844208,35.4558122 Z" id="Combined-Shape" fill="#B28AC9"></path>
                    <path d="M52,4 C52,2.8954305 52.8954305,2 54,2 C55.1045695,2 56,2.8954305 56,4 C56,5.1045695 55.1045695,6 54,6 C52.8954305,6 52,5.1045695 52,4 L52,4 L52,4 Z M25,36 C25,34.8954305 25.8954305,34 27,34 C28.1045695,34 29,34.8954305 29,36 C29,37.1045695 28.1045695,38 27,38 C25.8954305,38 25,37.1045695 25,36 L25,36 L25,36 Z M40,32 C40,30.8954305 40.8954305,30 42,30 C43.1045695,30 44,30.8954305 44,32 C44,33.1045695 43.1045695,34 42,34 C40.8954305,34 40,33.1045695 40,32 L40,32 L40,32 Z M2,53 C2,51.8954305 2.8954305,51 4,51 C5.1045695,51 6,51.8954305 6,53 C6,54.1045695 5.1045695,55 4,55 C2.8954305,55 2,54.1045695 2,53 L2,53 L2,53 Z M38,46 C38,44.8954305 38.8954305,44 40,44 C41.1045695,44 42,44.8954305 42,46 C42,47.1045695 41.1045695,48 40,48 C38.8954305,48 38,47.1045695 38,46 L38,46 L38,46 Z M52,32 C52,30.8954305 52.8954305,30 54,30 C55.1045695,30 56,30.8954305 56,32 C56,33.1045695 55.1045695,34 54,34 C52.8954305,34 52,33.1045695 52,32 L52,32 L52,32 Z M69,48 C69,46.8954305 69.8954305,46 71,46 C72.1045695,46 73,46.8954305 73,48 C73,49.1045695 72.1045695,50 71,50 C69.8954305,50 69,49.1045695 69,48 L69,48 L69,48 Z M69,17 C69,15.8954305 69.8954305,15 71,15 C72.1045695,15 73,15.8954305 73,17 C73,18.1045695 72.1045695,19 71,19 C69.8954305,19 69,18.1045695 69,17 L69,17 L69,17 Z M93,43 C93,41.8954305 93.8954305,41 95,41 C96.1045695,41 97,41.8954305 97,43 C97,44.1045695 96.1045695,45 95,45 C93.8954305,45 93,44.1045695 93,43 L93,43 L93,43 Z M73,6 C73,4.8954305 73.8954305,4 75,4 C76.1045695,4 77,4.8954305 77,6 C77,7.1045695 76.1045695,8 75,8 C73.8954305,8 73,7.1045695 73,6 L73,6 L73,6 Z M85,18 C85,16.8954305 85.8954305,16 87,16 C88.1045695,16 89,16.8954305 89,18 C89,19.1045695 88.1045695,20 87,20 C85.8954305,20 85,19.1045695 85,18 L85,18 L85,18 Z" id="Combined-Shape" fill="#FFFFFF"></path>
                </g>
            </g>
        </g>
    </g>
</svg>